<?xml version="1.0" encoding="UTF-8" standalone="no"?>
<svg
   xmlns:dc="http://purl.org/dc/elements/1.1/"
   xmlns:cc="http://creativecommons.org/ns#"
   xmlns:rdf="http://www.w3.org/1999/02/22-rdf-syntax-ns#"
   xmlns:svg="http://www.w3.org/2000/svg"
   xmlns="http://www.w3.org/2000/svg"
   xmlns:sodipodi="http://sodipodi.sourceforge.net/DTD/sodipodi-0.dtd"
   xmlns:inkscape="http://www.inkscape.org/namespaces/inkscape"
   viewBox="0 0 512 512"
   version="1.1"
   id="svg16"
   sodipodi:docname="network.svg"
   inkscape:version="0.92.1 r15371">
  <metadata
     id="metadata22">
    <rdf:RDF>
      <cc:Work
         rdf:about="">
        <dc:format>image/svg+xml</dc:format>
        <dc:type
           rdf:resource="http://purl.org/dc/dcmitype/StillImage" />
      </cc:Work>
    </rdf:RDF>
  </metadata>
  <defs
     id="defs20" />
  <sodipodi:namedview
     pagecolor="#ffffff"
     bordercolor="#666666"
     borderopacity="1"
     objecttolerance="10"
     gridtolerance="10"
     guidetolerance="10"
     inkscape:pageopacity="0"
     inkscape:pageshadow="2"
     inkscape:window-width="1366"
     inkscape:window-height="740"
     id="namedview18"
     showgrid="false"
     inkscape:zoom="0.92187499"
     inkscape:cx="91.648376"
     inkscape:cy="211.83257"
     inkscape:window-x="0"
     inkscape:window-y="0"
     inkscape:window-maximized="1"
     inkscape:current-layer="g12"
     inkscape:lockguides="false" />
  <rect
     width="427.62659"
     height="416.88812"
     id="rect2"
     style="fill:none;fill-opacity:0;stroke-width:0.82465476"
     x="38.351555"
     y="87.441551" />
  <g
     id="g12"
     style="fill:none;stroke:#000000;stroke-width:16.20000076;stroke-opacity:1"
     transform="translate(9.9714041,-60.595456)">
    <circle
       cx="102.59746"
       cy="337.0527"
       id="circle6"
       style="stroke:#000000;stroke-width:26.96041107;stroke-opacity:1"
       r="53.255138" />
    <circle
       cx="390.29218"
       cy="242.42802"
       id="circle8"
       style="stroke:#000000;stroke-width:26.96041107;stroke-opacity:1"
       r="53.255138" />
    <path
       d="m 145.08542,385.42486 c 45.07511,37.56484 8.25177,7.36445 57.09515,46.03607 M 363.62386,295.36705 c -83.96256,121.80841 0,0 -83.96256,121.80841"
       id="path10"
       style="stroke:#000000;stroke-width:26.96041107;stroke-opacity:1"
       inkscape:connector-curvature="0"
       sodipodi:nodetypes="cccc" />
    <circle
       cx="255.54158"
       cy="463.82892"
       id="circle6-3"
       style="stroke:#000000;stroke-width:26.96041107;stroke-opacity:1"
       r="53.255138" />
  </g>
</svg>
